<?xml version="1.0" encoding="utf-8"?>
<!-- Generator: Adobe Illustrator 24.0.3, SVG Export Plug-In . SVG Version: 6.00 Build 0)  -->
<svg version="1.1" id="Calque_1" xmlns="http://www.w3.org/2000/svg" xmlns:xlink="http://www.w3.org/1999/xlink" x="0px" y="0px"
	 viewBox="0 0 300 300" style="enable-background:new 0 0 300 300;" xml:space="preserve">
<g id="Calque_2_1_">
	<g id="Calque_1-2">
		<path d="M279.1,219.6c-40.7,59.8-123.8,76.3-185.7,37C31.6,217.3,14.4,137,55.1,77.1c19.1-28,48.6-47.8,82.5-55.1
			C97,81.8,114.3,162.2,176.2,201.6C206.5,220.7,243.7,227.3,279.1,219.6z"/>
	</g>
</g>
</svg>
