<?xml version="1.0" encoding="utf-8"?>
<!-- Generator: Adobe Illustrator 24.0.3, SVG Export Plug-In . SVG Version: 6.00 Build 0)  -->
<svg version="1.1" id="Calque_1" xmlns="http://www.w3.org/2000/svg" xmlns:xlink="http://www.w3.org/1999/xlink" x="0px" y="0px"
	 viewBox="0 0 300 300" style="enable-background:new 0 0 300 300;" xml:space="preserve">
<g id="Calque_2_2_">
	<g id="Calque_1-2_1_">
		<path d="M289.1,161.3c-28.4,42.2-86.3,54-129.4,26.1S104.6,102.8,133,60.6c13.3-19.8,33.9-33.8,57.5-39
			c-28.3,42.3-16.3,99.2,26.8,127C238.5,162.2,264.4,166.8,289.1,161.3z"/>
	</g>
</g>
<g id="Calque_1-2_2_">
	<path d="M196.4,262.1H51.2c-24.8,0-44.9-19.1-44.9-42.6c0-22.8,19-41.4,42.7-42.5c2.3-36.2,34.2-64.9,73-64.9
		c14.7-0.1,29.1,4.2,41.6,12.2c10.6,6.8,19.3,16.5,25,28.1c2.7-0.4,5.2-0.5,7.9-0.5c32.1,0,58.3,24.7,58.3,55.2
		S228.5,262.1,196.4,262.1z M51.2,187c-19.4,0-35,14.6-35,32.5s15.8,32.5,35,32.5h145.2c26.7,0,48.5-20.2,48.5-45s-21.8-45-48.5-45
		c-3.4,0-6.6,0.4-9.8,0.9c-2.3,0.5-4.5-0.8-5.4-2.9c-9.4-22.7-33.1-37.8-59.1-37.8c-34.9,0-63.3,26.5-63.3,59v0.9
		c0.1,2.7-2.1,5-4.9,5.1c-0.1,0-0.3,0-0.4,0C52.7,187,51.9,187,51.2,187L51.2,187z"/>
</g>
</svg>
