<?xml version="1.0" encoding="utf-8"?>
<!-- Generator: Adobe Illustrator 24.0.3, SVG Export Plug-In . SVG Version: 6.00 Build 0)  -->
<svg version="1.1" id="Calque_1" xmlns="http://www.w3.org/2000/svg" xmlns:xlink="http://www.w3.org/1999/xlink" x="0px" y="0px"
	 viewBox="0 0 300 300" style="enable-background:new 0 0 300 300;" xml:space="preserve">
<g id="Calque_2_1_">
	<g id="Calque_1-2">
		<path d="M199.5,263H59.9c-24.3,0-44.1-18.3-44.1-40.8c0-11.8,5.4-22.4,14-29.9c-0.4-0.2-0.8-0.5-1.2-0.8
			c-13.5-11.6-21.2-28.1-21.2-45.1c0-34,30-61.7,67-61.7c3,0,6.1,0.2,9.1,0.6c6.5-12.9,16.4-23.7,28.6-31.4
			c14.3-9,30.8-13.8,47.7-13.7c44.6,0,81.2,32.2,83.8,72.7c27.3,1.2,49.1,22.1,49.1,47.6c0,19.9-13.6,37.9-33.8,44.8
			c-0.8,0.3-1.7,0.4-2.6,0.2c0.2,1.6,0.2,3.3,0.2,4.9C256.5,239.4,231,263,199.5,263z M59.9,192.6c-18.1,0-32.8,13.2-32.8,29.5
			s14.7,29.5,32.8,29.5h139.7c25.2,0,45.7-18.5,45.7-41.3S224.7,169,199.5,169c-3.1,0-6.3,0.3-9.3,0.9c-2.6,0.5-5.2-0.9-6.2-3.3
			c-8.9-20.8-31.4-34.8-55.9-34.8c-33.1,0-60,24.4-60,54.4v0.8c0,1.6-0.6,3.1-1.8,4.2c-1.1,1.1-2.7,1.7-4.2,1.6
			C61.3,192.6,60.6,192.6,59.9,192.6z M199.5,157.7c25.7,0,47.4,15.7,54.5,37.3c0.4-0.2,0.8-0.4,1.2-0.5c15.6-5.3,26.1-19,26.1-34
			c0-20-18.1-36.4-40.3-36.4c-0.8,0-1.7,0-2.7,0.1c-3.1,0.2-5.8-2.2-6-5.3c0-0.1,0-0.3,0-0.4v-1c0-36.3-32.6-65.9-72.7-65.9
			c-29.8,0-57,17-67.8,42.2c-1,2.4-3.6,3.8-6.3,3.3c-3.7-0.7-7.5-1-11.3-1c-30.7,0-55.7,22.6-55.7,50.4c0,13.9,6.1,26.9,17.3,36.5
			c1.1,1,1.8,2.3,1.9,3.8c5.9-3.1,12.4-4.9,19-5.3c2.7-34,33.5-60.9,71.1-60.9c14.3-0.1,28.4,4,40.5,11.6
			c10.2,6.4,18.5,15.4,24,26.1C194.8,157.9,197.2,157.7,199.5,157.7L199.5,157.7z"/>
	</g>
</g>
</svg>
