<?xml version="1.0" encoding="utf-8"?>
<!-- Generator: Adobe Illustrator 24.0.3, SVG Export Plug-In . SVG Version: 6.00 Build 0)  -->
<svg version="1.1" id="Calque_1" xmlns="http://www.w3.org/2000/svg" xmlns:xlink="http://www.w3.org/1999/xlink" x="0px" y="0px"
	 viewBox="0 0 300 300" style="enable-background:new 0 0 300 300;" xml:space="preserve">
<path d="M186.2,238.7H52c-23.5,0-42.7-17.6-42.7-39.3c0-20.7,17.5-37.7,39.5-39.2c2.7-32.5,32.4-58.1,68.6-58.1
	c3.9,0,7.8,0.3,11.7,0.8c5-23.2,24.5-40.6,48.2-43.3c30.3-3.2,57.4,18.7,60.5,48.8c1.7,15.4-3.4,30.7-13.9,42.3l-0.4,0.4
	c10.8,9.2,17.6,22.4,17.6,37C241.2,216.1,216.5,238.7,186.2,238.7L186.2,238.7z M52,171.6c-17.2,0-31.2,12.5-31.2,27.9
	s14,27.9,31.2,27.9h134.1c24.1,0,43.6-17.6,43.6-39.1s-19.5-39.1-43.6-39.1c-3,0-6,0.2-8.9,0.7c-2.7,0.4-5.3-0.8-6.4-3.4
	c-8.5-19.7-30-33-53.4-33c-31.6,0-57.2,23.1-57.2,51.5v0.7c0,3.2-2.5,5.7-5.7,5.7c-0.1,0-0.2,0-0.4,0
	C53.3,171.6,52.7,171.6,52,171.6L52,171.6z M186.2,137.6c9.9,0,19.6,2.4,28.2,7.2c0.2-0.6,0.6-1.2,1.1-1.7
	c16-17.8,14.5-45.3-3.4-61.2c-17.9-16-45.5-14.4-61.5,3.4c-5.1,5.7-8.6,12.6-10.2,20.1c17.1,5.4,31.3,17,39.2,32.4
	C181.7,137.7,183.9,137.6,186.2,137.6L186.2,137.6z M270.8,159.5c-0.7,0-1.6-0.1-2.3-0.4l-17.1-7.6c-3-1.3-4.2-4.7-3-7.6
	c1.3-3,4.7-4.2,7.6-3l0,0l17.1,7.7c3,1.3,4.2,4.7,3,7.6C275.3,158.2,273.1,159.5,270.8,159.5z M260.4,112.5c-3,0-5.4-2.2-5.7-5.1
	c0-0.2,0-0.4,0-0.5c0-3,2.2-5.4,5.1-5.7l18.6-2c3.2-0.3,6,2,6.4,5.1l0,0c0,0.1,0,0.4,0,0.5c0,3-2.2,5.4-5.1,5.7l-18.7,2
	C260.8,112.5,260.7,112.5,260.4,112.5L260.4,112.5z M112.4,87.9c-0.7,0-1.6-0.1-2.3-0.4L93,79.8c-2-1-3.4-3-3.4-5.2
	c0-0.7,0.1-1.6,0.4-2.3c1.3-2.9,4.7-4.2,7.6-3l0,0l17.1,7.6c3,1.3,4.2,4.7,3,7.6C116.6,86.5,114.6,87.9,112.4,87.9L112.4,87.9z
	 M246.4,75c-3.2,0-5.7-2.5-5.7-5.7c0-1.8,0.8-3.6,2.3-4.7l15.2-10.9c2.5-1.9,6.1-1.4,8.1,1.1c2,2.5,1.5,6-1.1,8
	c-0.1,0.1-0.1,0.1-0.2,0.1l-15.2,10.9C248.7,74.5,247.5,75,246.4,75z M137.9,56.9c-1.8,0-3.6-0.8-4.7-2.3l-11-15.1
	c-1.7-2.7-1.1-6.1,1.6-8c2.5-1.7,5.8-1.1,7.7,1.3l11,14.9c0.7,1,1.1,2.1,1.1,3.4C143.6,54.4,141.1,57.1,137.9,56.9L137.9,56.9
	L137.9,56.9z M215.2,49.5c-3.2,0-5.7-2.5-5.7-5.7c0-0.7,0.1-1.6,0.4-2.3l7.6-17c1.3-3,4.7-4.2,7.6-3c3,1.3,4.2,4.7,3,7.6l-7.6,17
	C219.5,48.3,217.5,49.5,215.2,49.5z M175.6,43c-3,0-5.4-2.2-5.7-5.1l-2-18.6c0-0.1,0-0.4,0-0.5c-0.1-3.2,2.3-5.8,5.4-6
	c3.2-0.1,5.9,2.3,6,5.4l1.9,18.6c0,0.1,0,0.4,0,0.5c0,3-2.2,5.4-5.1,5.7C176,43,175.8,43,175.6,43z M30.6,293.8
	c-3.1,0-5.5-1.8-5.5-3.9c0-0.7,0.2-1.4,0.7-2l34.9-42.5c1.4-1.9,4.9-2.7,7.5-1.7c2.7,1.1,3.8,3.4,2.3,5.3c-0.1,0.1-0.1,0.1-0.2,0.2
	l-34.9,42.5C34.5,293,32.7,293.8,30.6,293.8z M77.6,293.8c-3.1,0-5.5-1.8-5.5-3.9c0-0.7,0.2-1.4,0.7-2l34.9-42.5
	c1.4-1.9,4.9-2.7,7.5-1.7c2.7,1,3.8,3.4,2.3,5.3c-0.1,0.1-0.1,0.1-0.2,0.2l-34.9,42.5C81.4,293,79.5,293.8,77.6,293.8z M123.7,293.8
	c-3.1,0-5.5-1.8-5.5-3.9c0-0.7,0.2-1.4,0.7-2l34.9-42.5c1.4-1.9,4.9-2.7,7.5-1.7c2.7,1.1,3.8,3.4,2.3,5.3c-0.1,0.1-0.1,0.1-0.2,0.2
	l-34.9,42.5C127.5,293,125.6,293.8,123.7,293.8z M169.7,293.8c-3.1,0-5.5-1.8-5.5-3.9c0-0.7,0.2-1.4,0.7-2l34.9-42.5
	c1.4-1.9,4.9-2.7,7.5-1.7c2.7,1.1,3.8,3.4,2.3,5.3c-0.1,0.1-0.1,0.1-0.2,0.2l-34.9,42.5C173.6,293,171.7,293.8,169.7,293.8z"/>
</svg>
